This is BibTeX, Version 0.99d (TeX Live 2017)
Capacity: max_strings=100000, hash_size=100000, hash_prime=85009
The top-level auxiliary file: artigo.aux
The style file: abntex2-num.bst
Reallocated singl_function (elt_size=4) to 100 items from 50.
Reallocated singl_function (elt_size=4) to 100 items from 50.
Reallocated singl_function (elt_size=4) to 100 items from 50.
Reallocated singl_function (elt_size=4) to 100 items from 50.
Reallocated wiz_functions (elt_size=4) to 6000 items from 3000.
Reallocated singl_function (elt_size=4) to 100 items from 50.
Reallocated singl_function (elt_size=4) to 100 items from 50.
Reallocated singl_function (elt_size=4) to 100 items from 50.
Reallocated wiz_functions (elt_size=4) to 9000 items from 6000.
Database file #1: abntex2-options.bib
Database file #2: biblio.bib
Warning--entry type for "siri" isn't style-file defined
--line 11 of file biblio.bib
Warning--entry type for "amazon" isn't style-file defined
--line 21 of file biblio.bib
Warning--entry type for "cloudsightpod" isn't style-file defined
--line 31 of file biblio.bib
Warning--entry type for "identifi" isn't style-file defined
--line 40 of file biblio.bib
Warning--entry type for "upwork" isn't style-file defined
--line 50 of file biblio.bib
Warning--entry type for "voiceover" isn't style-file defined
--line 59 of file biblio.bib
Warning--entry type for "swift" isn't style-file defined
--line 78 of file biblio.bib
Warning--entry type for "w3c" isn't style-file defined
--line 117 of file biblio.bib
Warning--entry type for "cloudsight" isn't style-file defined
--line 206 of file biblio.bib
Warning--entry type for "cloud" isn't style-file defined
--line 216 of file biblio.bib
Warning--entry type for "azure" isn't style-file defined
--line 227 of file biblio.bib
Warning--entry type for "watson" isn't style-file defined
--line 238 of file biblio.bib
Warning--entry type for "bemyeyes" isn't style-file defined
--line 249 of file biblio.bib
Warning--entry type for "aipoly" isn't style-file defined
--line 258 of file biblio.bib
Warning--entry type for "mentecerebro" isn't style-file defined
--line 270 of file biblio.bib
Warning--entry type for "store2017" isn't style-file defined
--line 289 of file biblio.bib
Warning--entry type for "play2017" isn't style-file defined
--line 299 of file biblio.bib
Warning--entry type for "tecmundo" isn't style-file defined
--line 309 of file biblio.bib
Reallocated singl_function (elt_size=4) to 100 items from 50.
Reallocated glb_str_ptr (elt_size=4) to 20 items from 10.
Reallocated global_strs (elt_size=20001) to 20 items from 10.
Reallocated glb_str_end (elt_size=4) to 20 items from 10.
Warning--campo year vazio ou faltando em store2017
Warning--campo year vazio ou faltando em play2017
Warning--campo year vazio ou faltando em mentecerebro
Warning--campo year vazio ou faltando em bemyeyes
Warning--campo year vazio ou faltando em cloudsight
Warning--campo year vazio ou faltando em swift
Warning--campo year vazio ou faltando em upwork
Warning--campo year vazio ou faltando em cloudsightpod
+---------------------------------------------------------+
| Estilo bibliográfico abntex2-num.bst versão v-1.9.6           |
| Em caso de dúvidas ou problemas com este estilo procure |
| http://www.abntex.net.br/                               |
+---------------------------------------------------------+
You've used 28 entries,
            6714 wiz_defined-function locations,
            1326 strings with 12958 characters,
and the built_in function-call counts, 40843 in all, are:
= -- 5312
> -- 334
< -- 1310
+ -- 1488
- -- 108
* -- 2244
:= -- 4923
add.period$ -- 95
call.type$ -- 28
change.case$ -- 180
chr.to.int$ -- 42
cite$ -- 35
duplicate$ -- 4619
empty$ -- 1433
format.name$ -- 541
if$ -- 7897
int.to.chr$ -- 1
int.to.str$ -- 0
missing$ -- 444
newline$ -- 145
num.names$ -- 100
pop$ -- 615
preamble$ -- 1
purify$ -- 86
quote$ -- 0
skip$ -- 4990
stack$ -- 1
substring$ -- 1767
swap$ -- 1568
text.length$ -- 29
text.prefix$ -- 0
top$ -- 0
type$ -- 16
warning$ -- 8
while$ -- 147
width$ -- 0
write$ -- 336
(There were 26 warnings)
