\relax 
\catcode `"\active 
\citation{abnt-url-package=url}
\citation{tecmundo}
\citation{store2017}
\citation{play2017}
\citation{amazon}
\citation{siri}
\select@language{brazil}
\@writefile{toc}{\select@language{brazil}}
\@writefile{lof}{\select@language{brazil}}
\@writefile{lot}{\select@language{brazil}}
\select@language{english}
\@writefile{toc}{\select@language{english}}
\@writefile{lof}{\select@language{english}}
\@writefile{lot}{\select@language{english}}
\select@language{brazil}
\@writefile{toc}{\select@language{brazil}}
\@writefile{lof}{\select@language{brazil}}
\@writefile{lot}{\select@language{brazil}}
\@writefile{toc}{\contentsline {section}{\numberline {1}Introdu\IeC {\c c}\IeC {\~a}o}{1}}
\newlabel{cap:introducao}{{1}{1}}
\citation{assisti}
\citation{mentecerebro}
\citation{bemyeyes}
\citation{aipoly}
\citation{identifi}
\@writefile{toc}{\contentsline {subsection}{\numberline {1.1}Aplicativos Existentes}{2}}
\newlabel{cap:existentes}{{1.1}{2}}
\citation{kelly}
\citation{image1}
\citation{marcal}
\@writefile{toc}{\contentsline {subsection}{\numberline {1.2}Trabalhos Relacionados}{3}}
\newlabel{cap:relacionados}{{1.2}{3}}
\@writefile{toc}{\contentsline {subsection}{\numberline {1.3}Objetivos}{3}}
\newlabel{cap:objetivo}{{1.3}{3}}
\citation{redeneural}
\citation{neural2}
\citation{redeneural}
\citation{lecun2015deep}
\citation{cloud1}
\citation{azure}
\citation{cloud}
\citation{watson}
\citation{cloudsight}
\citation{w3c}
\@writefile{toc}{\contentsline {section}{\numberline {2}Fundamenta\IeC {\c c}\IeC {\~a}o Te\IeC {\'o}rica}{4}}
\newlabel{cap:fundamentacao}{{2}{4}}
\citation{swift}
\citation{lecheta}
\citation{voiceover}
\@writefile{lof}{\contentsline {figure}{\numberline {1}{\ignorespaces Arquitetura de utiliza\IeC {\c c}\IeC {\~a}o de um \emph  {web service}}}{5}}
\newlabel{fig:rest}{{1}{5}}
\@writefile{toc}{\contentsline {section}{\numberline {3}Implementa\IeC {\c c}\IeC {\~a}o}{5}}
\newlabel{cap:implementacao}{{3}{5}}
\@writefile{toc}{\contentsline {subsection}{\numberline {3.1}Desenvolvimento}{5}}
\newlabel{cap:desenvolvimento}{{3.1}{5}}
\@writefile{toc}{\contentsline {subsection}{\numberline {3.2}\emph  {Layout}}{5}}
\newlabel{cap:layout}{{3.2}{5}}
\citation{azure}
\citation{cloud}
\citation{watson}
\citation{cloudsight}
\citation{upwork}
\@writefile{lof}{\contentsline {figure}{\numberline {2}{\ignorespaces Diagrama de sequ\IeC {\^e}ncia para fotografar e selecionar na galeria.}}{6}}
\newlabel{fig:sequence}{{2}{6}}
\@writefile{lof}{\contentsline {figure}{\numberline {3}{\ignorespaces Tela com aba para buscar imagem na galeria ativada.}}{6}}
\newlabel{fig:screen1}{{3}{6}}
\@writefile{toc}{\contentsline {subsection}{\numberline {3.3}Escolha da API}{7}}
\newlabel{cap:api}{{3.3}{7}}
\@writefile{lot}{\contentsline {table}{\numberline {1}{\ignorespaces Tabela de compara\IeC {\c c}\IeC {\~a}o de descri\IeC {\c c}\IeC {\~a}o de imagem.}}{8}}
\newlabel{table:teste}{{1}{8}}
\@writefile{lot}{\contentsline {table}{\numberline {2}{\ignorespaces Rela\IeC {\c c}\IeC {\~a}o de imagens analisadas.}}{8}}
\newlabel{table:imgs}{{2}{8}}
\@writefile{toc}{\contentsline {subsection}{\numberline {3.4}CloudSight}{9}}
\newlabel{cap:cloudsight}{{3.4}{9}}
\@writefile{lof}{\contentsline {figure}{\numberline {4}{\ignorespaces Resposta com o token da imagem enviada.}}{9}}
\newlabel{fig:image_request}{{4}{9}}
\@writefile{lof}{\contentsline {figure}{\numberline {5}{\ignorespaces Resposta com a descri\IeC {\c c}\IeC {\~a}o da imagem.}}{9}}
\newlabel{fig:image_response}{{5}{9}}
\@writefile{toc}{\contentsline {subsection}{\numberline {3.5}Recursos}{10}}
\newlabel{cap:recursos}{{3.5}{10}}
\@writefile{toc}{\contentsline {section}{\numberline {4}Testes e Desenvolvimentos Futuros}{10}}
\newlabel{cap:teste}{{4}{10}}
\@writefile{lof}{\contentsline {figure}{\numberline {6}{\ignorespaces Gr\IeC {\'a}fico da varia\IeC {\c c}\IeC {\~a}o do tempo de envio.}}{10}}
\newlabel{fig:grafico_tempo_envio}{{6}{10}}
\citation{cloudsightpod}
\bibdata{abntex2-options,biblio}
\bibcite{tecmundo}{1}
\bibcite{tecmundo++EXPL}{Peron}
\bibcite{tecmundo++IMPL}{PERON}
\bibcite{tecmundo++YEAR}{2017}
\bibcite{store2017}{2}
\bibcite{store2017++EXPL}{Statista}
\bibcite{store2017++IMPL}{STATISTA}
\bibcite{store2017++YEAR}{a}
\bibcite{play2017}{3}
\bibcite{play2017++EXPL}{Statista}
\bibcite{play2017++IMPL}{STATISTA}
\bibcite{play2017++YEAR}{b}
\bibcite{amazon}{4}
\bibcite{amazon++EXPL}{Amazon\dots  }
\bibcite{amazon++IMPL}{AMAZON\dots  }
\bibcite{amazon++YEAR}{2017}
\bibcite{siri}{5}
\bibcite{siri++EXPL}{Apple}
\bibcite{siri++IMPL}{APPLE}
\bibcite{siri++YEAR}{2017}
\bibcite{assisti}{6}
\bibcite{assisti++EXPL}{T{\'e}cnicas}
\bibcite{assisti++IMPL}{T{\'E}CNICAS}
\bibcite{assisti++YEAR}{2007}
\bibcite{mentecerebro}{7}
\bibcite{mentecerebro++EXPL}{C{\'e}rebro}
\bibcite{mentecerebro++IMPL}{C{\'E}REBRO}
\bibcite{mentecerebro++YEAR}{}
\@writefile{toc}{\contentsline {section}{\numberline {5}Conclus\IeC {\~a}o}{11}}
\newlabel{cap:conclusao}{{5}{11}}
\bibcite{bemyeyes}{8}
\bibcite{bemyeyes++EXPL}{Hypeness}
\bibcite{bemyeyes++IMPL}{HYPENESS}
\bibcite{bemyeyes++YEAR}{}
\bibcite{aipoly}{9}
\bibcite{aipoly++EXPL}{Online}
\bibcite{aipoly++IMPL}{ONLINE}
\bibcite{aipoly++YEAR}{2017}
\bibcite{identifi}{10}
\bibcite{identifi++EXPL}{Identifi}
\bibcite{identifi++IMPL}{IDENTIFI}
\bibcite{identifi++YEAR}{2017}
\bibcite{kelly}{11}
\bibcite{kelly++EXPL}{Sousa}
\bibcite{kelly++IMPL}{SOUSA}
\bibcite{kelly++YEAR}{2012}
\bibcite{image1}{12}
\bibcite{image1++EXPL}{Matusiak P.~Skulimowski}
\bibcite{image1++IMPL}{MATUSIAK P.~SKULIMOWSKI}
\bibcite{image1++YEAR}{2013}
\bibcite{marcal}{13}
\bibcite{marcal++EXPL}{Mar{\c c}al}
\bibcite{marcal++IMPL}{MAR{\c C}AL}
\bibcite{marcal++YEAR}{2014}
\bibcite{redeneural}{14}
\bibcite{redeneural++EXPL}{Braga}
\bibcite{redeneural++IMPL}{BRAGA}
\bibcite{redeneural++YEAR}{2007}
\bibcite{neural2}{15}
\bibcite{neural2++EXPL}{Ferneda}
\bibcite{neural2++IMPL}{FERNEDA}
\bibcite{neural2++YEAR}{2006}
\bibcite{lecun2015deep}{16}
\bibcite{lecun2015deep++EXPL}{LeCun, Bengio e Hinton}
\bibcite{lecun2015deep++IMPL}{LECUN; BENGIO; HINTON}
\bibcite{lecun2015deep++YEAR}{2015}
\bibcite{cloud1}{17}
\bibcite{cloud1++EXPL}{Marins}
\bibcite{cloud1++IMPL}{MARINS}
\bibcite{cloud1++YEAR}{2009}
\bibcite{azure}{18}
\bibcite{azure++EXPL}{Microsoft}
\bibcite{azure++IMPL}{MICROSOFT}
\bibcite{azure++YEAR}{2017}
\bibcite{cloud}{19}
\bibcite{cloud++EXPL}{Google}
\bibcite{cloud++IMPL}{GOOGLE}
\bibcite{cloud++YEAR}{2017}
\bibcite{watson}{20}
\bibcite{watson++EXPL}{IBM}
\bibcite{watson++IMPL}{IBM}
\bibcite{watson++YEAR}{2017}
\bibcite{cloudsight}{21}
\bibcite{cloudsight++EXPL}{CloudSight}
\bibcite{cloudsight++IMPL}{CLOUDSIGHT}
\bibcite{cloudsight++YEAR}{}
\bibcite{w3c}{22}
\bibcite{w3c++EXPL}{Note}
\bibcite{w3c++IMPL}{NOTE}
\bibcite{w3c++YEAR}{2004}
\bibcite{swift}{23}
\bibcite{swift++EXPL}{Apple}
\bibcite{swift++IMPL}{APPLE}
\bibcite{swift++YEAR}{}
\bibcite{lecheta}{24}
\bibcite{lecheta++EXPL}{Lecheta}
\bibcite{lecheta++IMPL}{LECHETA}
\bibcite{lecheta++YEAR}{2017}
\bibcite{voiceover}{25}
\bibcite{voiceover++EXPL}{Apple}
\bibcite{voiceover++IMPL}{APPLE}
\bibcite{voiceover++YEAR}{2017}
\bibcite{upwork}{26}
\bibcite{upwork++EXPL}{Keenan}
\bibcite{upwork++IMPL}{KEENAN}
\bibcite{upwork++YEAR}{}
\bibcite{cloudsightpod}{27}
\bibcite{cloudsightpod++EXPL}{Folkens}
\bibcite{cloudsightpod++IMPL}{FOLKENS}
\bibcite{cloudsightpod++YEAR}{}
\bibstyle{abntex2-num}
